1 10 20
900 1000 174
3 3 8
444 839 171
6744 3339 262
92677 66021 351
17109 66919 340
331 741 171
585 5283 238
29599 12453 308
80975 97915 333
298 354 144
3 3458 217
28909 49423 324
41815 93088 351
502 46 144
7456 1317 262
25902 37931 324
99544 94021 328
151 68 122
1273 9090 262
38359 56898 340
84169 82538 320
92 902 179
2630 6341 262
51529 80172 351
47195 77963 351
652 147 145
9180 751 262
73909 10418 340
2165 71161 340
973 356 179
3570 461 217
98824 99271 328
26897 6875 308
757 101 171
580 4093 238
12603 84728 351
46493 83338 351
647 545 137
2737 1759 209
50027 95033 351
20033 41357 324
699 862 171
7025 6614 257
22258 63759 340
30169 88968 351
17 800 171
3058 3368 199
78025 88982 338
71784 65105 325
49 792 171
683 4240 238
65946 75593 325
4168 71012 340
746 852 153
9182 2392 262
21654 77951 351
56964 27658 340
389 89 144
2936 1029 217
50129 19337 324
87860 81570 333
51 793 171
8461 965 262
64826 53029 335
74898 3952 340
554 763 171
6447 2070 262
33738 31924 267
26766 55788 340
32 146 122
3021 1942 217
58275 21466 340
39432 30240 324
574 366 142
1688 2093 180
2551 71856 340
20907 22879 269
436 87 144
30 1288 182
34555 28196 311
71674 61491 330
335 705 171
6433 2322 262
84059 71911 351
72118 91135 351
629 141 144
2103 4823 238
59750 83657 351
43256 960 324
637 299 144
6671 1565 262
64009 86237 351
99598 1868 351
295 141 128
4616 8664 262
7223 43507 324
34860 44707 324
792 290 171
5878 1097 238
67763 82775 351
17892 58129 340
265 625 144
7110 6157 262
67983 2371 340
56487 61602 335
645 370 142
3390 7453 262
6495 29064 308
13001 39906 324
185 594 144
4302 4695 215
43002 99877 351
3296 39460 324
876 362 179
9823 2647 262
90500 206 351
79855 67733 351
270 58 128
4114 8983 262
10984 44239 324
75696 44373 340
439 742 171
8720 2826 262
60420 48776 340
33047 76905 340
537 269 144
5998 52 238
71601 70261 325
3511 91752 351
772 134 171
8250 6170 262
15289 49036 324
8668 29612 308
408 320 144
5454 1912 238
97535 52957 351
3507 75138 340
569 826 171
5683 6738 262
41079 55887 340
1709 26920 308
12 311 128
9931 4438 262
4550 72839 340
64718 52317 340
716 139 171
7885 3321 262
49167 70595 340
77679 81003 338
72 279 128
603 5423 238
45142 60458 340
94504 24951 351
324 215 131
4069 5817 236
60949 70071 335
42856 25984 324
464 949 179
9839 4689 262
49371 75926 340
98029 4359 351
20 640 144
8777 1606 262
41047 78891 351
40616 35442 324
194 284 128
1317 6868 262
77437 13967 351
90833 31278 351
336 270 144
8774 1081 262
85260 67943 351
28473 17706 308
789 726 153
2281 9054 262
90148 34879 351
85685 67426 351
997 256 179
5313 4602 210
16434 83134 351
68418 2563 340
671 998 179
7178 6915 257
76408 54428 335
69877 11797 340
463 515 142
573 5204 238
63445 52767 335
29173 23494 308
601 72 144
4911 2781 238
43620 68466 340
11860 49961 324
907 389 179
4165 8802 262
51574 46057 314
88160 54435 351
108 424 144
3935 9408 262
82620 48057 351
83547 8088 351
607890 912345 525
1 999999 525
3 768 171
