1 1 1
999999 999999 259
999999 999998 259
123456 654321 509
10 10 7
69 69 15
420 420 41
84392 147892 375
34418 217 311
865 43386 324
771642 66577 509
983654 91513 525
123 74929 340
291884 994771 525
1173 3125 217
418795 418796 113
916 733156 509
39286 48 324
73998 2221 340
862442 164893 525
893 8129 262
773719 8 509
87544 121 351
216526 89 386
18797 78562 351
5259 7298 262
778678 778677 75
2236 96114 351
935388 935387 233
6566 3376 262
7642 654 262
39997 77 324
942414 942415 109
89479 786891 509
2790 2791 129
173 173 32
47526 269 324
63348 347 340
7992 7330 252
897925 81777 525
916 7331 262
925761 9189 525
418797 418798 113
58879 7768 340
115 114 34
449 173 144
5575 93994 351
663 110 145
11138 6696 268
57580 1478 340
372189 20793 443
98 98 26
628883 628884 217
431 8653 262
791 3455 217
114497 64321 354
974758 974759 91
79 378 144
152682 55622 375
94 15 116
18697 25183 282
959926 959927 277
984890 9790 525
142198 7106 354
3863 2906 238
168721 3396 383
21391 91434 351
886 1105 174
32246 207 308
5931 5932 143
9947 87467 351
26199 19998 282
741 2232 183
77684 219 351
713612 713611 98
497 422 142
964416 229 525
127 3405 217
229 77 125
415594 15948 449
7 7 17
572554 289 470
779522 779523 88
847833 27952 525
43387 43388 133
651 5819 238
2951 1387 217
4543 181 238
87503 20368 351
558 7445 262
714996 25375 509
218168 11876 386
99 99 26
5824 425 238
64941 109 340
138692 18633 354
7 59 113
735 419 171
693 6695 262
414398 1355 449
257 4485 238
713612 101 509
34836 293 311
836 28 171
66777 961 340
319624 22665 443
1554 116 182
166 783 171
191 1197 182
55939 150 340
1762 3949 238
5221 266 238
1536 5343 238
36953 2791 324
78718 4216 351
99 773 171
644 995 179
613 731 171
27 7129 262
774 77 171
88999 88998 165
27433 123 308
2199 221 182
71217 7429 340
993 882 174
88499 58 351
334 5132 238
22 5132 238
5294 465 238
3217 3366 181
2714 2713 160
411 184 144
673 887 179
781177 64062 509
275 736 171
682299 88 509
29 6 112
831654 37597 509
48 489 144
735 734 47
4134 4133 158
938423 43 525
1 999999 525
1 10000 262
40000 50000 314
50000 60000 340
80000 90000 333
90000 100000 333
190000 200000 360
200000 210000 373
210000 220000 386
220000 230000 368
610000 620000 447
620000 630000 509
630000 640000 416
640000 650000 416
650000 660000 429
660000 670000 442
670000 680000 385
970000 980000 458
980000 990000 427
990000 999999 440
2 9999 262
10001 19999 279
20001 29999 308
30001 39999 324
40001 49999 314
50001 59999 340
60001 69999 335
70001 79999 351
80001 89999 333
90001 99999 333
100001 109999 354
110001 119999 349
120001 129999 344
130001 139999 344
140001 149999 375
150001 159999 383
970001 979999 458
980001 989999 427
990001 999998 440
1 10001 262
9999 20001 279
19999 30001 308
29999 40001 324
39999 50001 314
49999 60001 340
359999 370001 410
369999 380001 423
379999 390001 436
389999 400001 405
399999 410001 405
409999 420001 449
829999 840001 525
839999 850001 419
949999 960001 414
959999 970001 414
969999 980001 458
979999 990001 427
989999 999999 440
