1 10 20
100 200 125
201 210 89
900 1000 174
10 1 20
2 1 2
5 5 6
1 1 1
2 2 2
1 2 2
1 3 8
2 3 8
10 100 119
100 10 119
1 1000 179
1000 1 179
1 999 179
1 500 144
500 1000 179
1 10 20
100 200 125
201 210 89
900 1000 174
50 150 122
25 75 116
100 300 128
300 500 144
500 700 145
700 900 179
50 50 25
500 500 111
999 1000 112
1000 1000 112
250 250 110
150 650 145
1 150 122
650 1000 179
33 333 144
333 666 145
666 999 179
123 456 144
789 987 179
111 222 125
444 555 142
777 888 179
222 444 144
555 777 171
200 800 171
800 200 171
333 777 171
111 888 179
222 999 179
25 925 179
101 202 125
303 404 144
505 606 137
707 808 153
909 1000 174
1 200 125
200 400 144
400 600 142
600 800 171
800 1000 179
1 333 144
333 666 145
666 1000 179
111 333 144
444 666 145
777 1000 179
100 900 179
500 501 111
499 500 111
250 750 171
750 250 171
123 789 171
321 654 145
135 864 171
246 753 171
1 250 128
250 500 144
500 750 171
750 1000 179
2 500 144
500 999 179
1 499 144
100 900 179
900 100 179
50 950 179
950 50 179
25 475 144
475 925 179
10 490 144
490 980 179
981 1000 143
333 334 113
332 333 113
100 600 144
600 1100 179
50 55 113
55 60 113
60 65 108
65 70 28
70 75 116
75 80 36
80 85 111
85 90 31
90 95 106
95 100 119
101 105 88
105 110 114
110 115 114
115 120 34
120 125 109
10 1000 179
5 995 179
1 994 179
3 996 179
4 997 179
500 501 111
499 500 111
250 750 171
750 250 171
123 789 171
321 654 145
135 864 171
246 753 171
1 250 128
250 500 144
500 750 171
750 1000 179
2 500 144
500 999 179
1 499 144
100 900 179
900 100 179
50 950 179
950 50 179
25 475 144
475 925 179
10 490 144
490 980 179
981 1000 143
333 334 113
332 333 113
100 600 144
600 1100 179
50 55 113
55 60 113
60 65 108
65 70 28
70 75 116
75 80 36
80 85 111
85 90 31
90 95 106
95 100 119
101 105 88
105 110 114
110 115 114
115 120 34
120 125 109
10 1000 179
5 995 179
1 994 179
3 996 179
4 997 179
995 5 179
994 1 179
996 3 179
997 4 179
1 999999 525
2 999998 525
3 999997 525
999999 1 525
999999 500000 525
1 499999 449
1 200000 383
200000 400000 443
400000 600000 470
600000 800000 509
800000 999999 525
