.....................
----------------------------------------------------------------------
Ran 21 tests in 0.280s

OK
Name             Stmts   Miss Branch BrPart  Cover   Missing
------------------------------------------------------------
Collatz.py          60      0     26      0   100%
TestCollatz.py      94      0      0      0   100%
------------------------------------------------------------
TOTAL              154      0     26      0   100%
